aula24maio-oficial/testbench.vcd
$date
	Wed May 24 13:59:35 2023
$end
$version
	Icarus Verilog
$end
$timescale
	1ns
$end
$scope module testbench $end
$var wire 32 ! somaimm_tb [31:0] $end
$var wire 32 " somafour_tb [31:0] $end
$var wire 64 # res_tb [63:0] $end
$var wire 7 $ opcode_tb [6:0] $end
$var wire 64 % imm_tb [63:0] $end
$var wire 1 & flag_tb $end
$var wire 64 ' doutMem_tb [63:0] $end
$var wire 32 ( doutIR_tb [31:0] $end
$var wire 64 ) doutB_tb [63:0] $end
$var wire 64 * doutA_tb [63:0] $end
$var wire 64 + S4_tb [63:0] $end
$var wire 64 , S2_tb [63:0] $end
$var wire 64 - S1_tb [63:0] $end
$var wire 5 . Rw_tb [4:0] $end
$var wire 5 / Rb_tb [4:0] $end
$var wire 5 0 Ra_tb [4:0] $end
$var wire 32 1 PC_tb [31:0] $end
$var wire 32 2 IR_tb [31:0] $end
$var wire 32 3 C_tb [31:0] $end
$var reg 1 4 clock_tb $end
$var reg 1 5 sinalMux1_tb $end
$var reg 2 6 sinalMux2_tb [1:0] $end
$var reg 1 7 sinalMux4_tb $end
$var reg 1 8 weIR_tb $end
$var reg 1 9 weMemIns_tb $end
$var reg 1 : weMem_tb $end
$var reg 1 ; wePC_tb $end
$var reg 1 < weReg_tb $end
$scope module hii $end
$var wire 32 = palavra [31:0] $end
$var wire 7 > opcode [6:0] $end
$var wire 20 ? imm_field_typeB [19:0] $end
$var wire 12 @ imm_field_typeA [11:0] $end
$var wire 64 A imm [63:0] $end
$upscope $end
$scope module huu $end
$var wire 1 4 clock $end
$var wire 1 8 r_enable $end
$var wire 32 B data_in [31:0] $end
$var reg 32 C data_out [31:0] $end
$var reg 7 D opcode [6:0] $end
$upscope $end
$scope module ihs $end
$var wire 32 E imm_some [31:0] $end
$var wire 32 F four_some [31:0] $end
$var wire 1 & flag $end
$var wire 32 G S3 [31:0] $end
$upscope $end
$scope module iss $end
$var wire 1 7 sinalMux $end
$var wire 64 H doutA [63:0] $end
$var wire 64 I S4 [63:0] $end
$var wire 32 J PC [31:0] $end
$upscope $end
$scope module its $end
$var wire 64 K dout [63:0] $end
$var wire 64 L imm [63:0] $end
$var wire 32 M soma [31:0] $end
$upscope $end
$scope module itt $end
$var wire 32 N soma [31:0] $end
$var wire 32 O dout_pc [31:0] $end
$upscope $end
$scope module uhh $end
$var wire 1 4 clock $end
$var wire 32 P data_in [31:0] $end
$var wire 1 ; r_enable $end
$var reg 32 Q data_out [31:0] $end
$upscope $end
$scope module utH $end
$var wire 32 R ads [31:0] $end
$var wire 1 9 we $end
$var wire 5 S rs2 [4:0] $end
$var wire 5 T rs1 [4:0] $end
$var wire 5 U rd [4:0] $end
$var wire 7 V opcode [6:0] $end
$var wire 32 W dout [31:0] $end
$upscope $end
$scope module utt $end
$var wire 5 X Ra [4:0] $end
$var wire 5 Y Rb [4:0] $end
$var wire 5 Z Rw [4:0] $end
$var wire 1 4 clk $end
$var wire 1 < we $end
$var wire 64 [ din [63:0] $end
$var reg 64 \ doutA [63:0] $end
$var reg 64 ] doutB [63:0] $end
$upscope $end
$scope module utu $end
$var wire 64 ^ din [63:0] $end
$var wire 1 : we $end
$var wire 64 _ dout [63:0] $end
$var wire 64 ` ads [63:0] $end
$upscope $end
$scope module utv $end
$var wire 64 a doutB [63:0] $end
$var wire 64 b imm [63:0] $end
$var wire 1 5 sinalMux $end
$var wire 64 c S1 [63:0] $end
$upscope $end
$scope module uut $end
$var wire 64 d a [63:0] $end
$var wire 64 e au [63:0] $end
$var wire 64 f b [63:0] $end
$var wire 64 g bu [63:0] $end
$var wire 32 h sinal [31:0] $end
$var wire 64 i soma_ [63:0] $end
$var wire 64 j soma [63:0] $end
$var wire 1 k is_negative $end
$var wire 1 l flagBLTU $end
$var wire 1 m flagBLT $end
$var wire 1 n flagBEQ $end
$var wire 1 & flag $end
$upscope $end
$scope module uvv $end
$var wire 32 o PC_four [31:0] $end
$var wire 32 p PC_imm [31:0] $end
$var wire 64 q dout [63:0] $end
$var wire 2 r sinalMux [1:0] $end
$var wire 64 s soma [63:0] $end
$var wire 64 t S2 [63:0] $end
$upscope $end
$upscope $end
$enddefinitions $end
#0
$dumpvars
bx t
bx s
b0 r
bx q
bx p
b100 o
xn
xm
xl
xk
bx j
bx i
b100010000001001100011 h
bx g
bx f
bx e
bx d
bx c
bx00 b
bx a
bx `
bx _
bx ^
bx ]
bx \
bx [
b100 Z
b1 Y
b10 X
b100010000001001100011 W
b1100011 V
b100 U
b10 T
b1 S
b0 R
b0 Q
bx P
b0 O
b100 N
bx M
bx00 L
b0 K
b0 J
b0 I
bx H
bx G
b100 F
bx E
bx D
bx C
b100010000001001100011 B
bx00 A
bx @
bx ?
b1100011 >
bx =
0<
0;
0:
19
18
07
b0 6
15
04
bx 3
b100010000001001100011 2
b0 1
b10 0
b1 /
b100 .
bx -
bx ,
b0 +
bx *
bx )
bx (
bx '
x&
bx00 %
b1100011 $
bx #
b100 "
bx !
$end
#10
1&
b1000 3
b1000 G
b1000 P
b1000 !
b1000 E
b1000 M
b1000 p
1n
0m
b101101 ,
b101101 [
b101101 t
b101101 '
b101101 _
b101101 q
b1000 %
b1000 A
b1000 L
b1000 b
b0 #
b0 `
b0 j
b0 s
0l
b10 @
b100010000 ?
b0 i
0k
b1 g
b1 -
b1 c
b1 f
b1 )
b1 ]
b1 ^
b1 a
b1 e
b1 *
b1 H
b1 \
b1 d
b100010000001001100011 (
b100010000001001100011 =
b100010000001001100011 C
14
#20
04
09
1;
#30
0&
b1100 3
b1100 G
b1100 P
b10000 !
b10000 E
b10000 M
b10000 p
b11111 .
b11111 U
b11111 Z
b11 0
b11 T
b11 X
b1000 +
b1000 I
b1000 K
b11111110000100011001111111100011 2
b11111110000100011001111111100011 B
b11111110000100011001111111100011 W
b11111110000100011001111111100011 h
b1100 "
b1100 F
b1100 N
b1100 o
b10 1
b10 J
b10 O
b10 Q
b10 R
14
#40
04
0;
#50
b100 3
b100 G
b100 P
1&
b100 !
b100 E
b100 M
b100 p
0n
1m
bx ,
bx [
bx t
b1111111111111111111111111111111111111111111111111111111111111100 %
b1111111111111111111111111111111111111111111111111111111111111100 A
b1111111111111111111111111111111111111111111111111111111111111100 L
b1111111111111111111111111111111111111111111111111111111111111100 b
bx '
bx _
bx q
b1111111111111111111111111111111111111111111111111111111111111111 #
b1111111111111111111111111111111111111111111111111111111111111111 `
b1111111111111111111111111111111111111111111111111111111111111111 j
b1111111111111111111111111111111111111111111111111111111111111111 s
b111111111111 @
1l
b11111110000100011001 ?
b1111111111111111111111111111111111111111111111111111111111111111 i
1k
b0 e
b0 *
b0 H
b0 \
b0 d
b11111110000100011001111111100011 (
b11111110000100011001111111100011 =
b11111110000100011001111111100011 C
14
#60
04
1;
#70
b0 3
b0 G
b0 P
b0 !
b0 E
b0 M
b0 p
b100 .
b100 U
b100 Z
b100 +
b100 I
b100 K
b100011100001001100011 2
b100011100001001100011 B
b100011100001001100011 W
b100011100001001100011 h
b1000 "
b1000 F
b1000 N
b1000 o
b1 1
b1 J
b1 O
b1 Q
b1 R
14
#80
04
0;
#90
b1100 3
b1100 G
b1100 P
b1100 !
b1100 E
b1100 M
b1100 p
b1000 %
b1000 A
b1000 L
b1000 b
b10 @
b100011100 ?
b100011100001001100011 (
b100011100001001100011 =
b100011100001001100011 C
14
#100
04
1;
#110
0&
b10000 3
b10000 G
b10000 P
b10100 !
b10100 E
b10100 M
b10100 p
b11111 .
b11111 U
b11111 Z
b1100 +
b1100 I
b1100 K
b11111110000100011101111111100011 2
b11111110000100011101111111100011 B
b11111110000100011101111111100011 W
b11111110000100011101111111100011 h
b10000 "
b10000 F
b10000 N
b10000 o
b11 1
b11 J
b11 O
b11 Q
b11 R
14
#120
04
0;
#130
b1000 !
b1000 E
b1000 M
b1000 p
b1111111111111111111111111111111111111111111111111111111111111100 %
b1111111111111111111111111111111111111111111111111111111111111100 A
b1111111111111111111111111111111111111111111111111111111111111100 L
b1111111111111111111111111111111111111111111111111111111111111100 b
b111111111111 @
b11111110000100011101 ?
b11111110000100011101111111100011 (
b11111110000100011101111111100011 =
b11111110000100011101111111100011 C
14
#140
04
1;
#150
1&
b1100 !
b1100 E
b1100 M
b1100 p
b100 .
b100 U
b100 Z
b101 0
b101 T
b101 X
b100 /
b100 S
b100 Y
b1100 3
b1100 G
b1100 P
b10000 +
b10000 I
b10000 K
b10000000010000101110001001100011 2
b10000000010000101110001001100011 B
b10000000010000101110001001100011 W
b10000000010000101110001001100011 h
b10100 "
b10100 F
b10100 N
b10100 o
b100 1
b100 J
b100 O
b100 Q
b100 R
14
#160
04
0;
#170
1&
b11111111111111111110000000011000 3
b11111111111111111110000000011000 G
b11111111111111111110000000011000 P
b11111111111111111110000000011000 !
b11111111111111111110000000011000 E
b11111111111111111110000000011000 M
b11111111111111111110000000011000 p
0n
0m
bx ,
bx [
bx t
b1111111111111111111111111111111111111111111111111110000000001000 %
b1111111111111111111111111111111111111111111111111110000000001000 A
b1111111111111111111111111111111111111111111111111110000000001000 L
b1111111111111111111111111111111111111111111111111110000000001000 b
bx '
bx _
bx q
b10 #
b10 `
b10 j
b10 s
b100000000010 @
1l
b10000000010000101110 ?
b1111111111111111111111111111111111111111111111111111111111111111 g
b1111111111111111111111111111111111111111111111111111111111111111 -
b1111111111111111111111111111111111111111111111111111111111111111 c
b1111111111111111111111111111111111111111111111111111111111111111 f
b10 i
1k
b1111111111111111111111111111111111111111111111111111111111111111 )
b1111111111111111111111111111111111111111111111111111111111111111 ]
b1111111111111111111111111111111111111111111111111111111111111111 ^
b1111111111111111111111111111111111111111111111111111111111111111 a
b1 e
b1 *
b1 H
b1 \
b1 d
b10000000010000101110001001100011 (
b10000000010000101110001001100011 =
b10000000010000101110001001100011 C
14
#180
04
#190
0&
b11100 3
b11100 G
b11100 P
b11111111111111111110000000100000 !
b11111111111111111110000000100000 E
b11111111111111111110000000100000 M
b11111111111111111110000000100000 p
b11000 +
b11000 I
b11000 K
b10000101111001001100011 2
b10000101111001001100011 B
b10000101111001001100011 W
b10000101111001001100011 h
b11100 "
b11100 F
b11100 N
b11100 o
b110 1
b110 J
b110 O
b110 Q
b110 R
14
1;
#200
04
#210
b100000 !
b100000 E
b100000 M
b100000 p
b1000 %
b1000 A
b1000 L
b1000 b
b10 @
b10000101111 ?
b10000101111001001100011 (
b10000101111001001100011 =
b10000101111001001100011 C
14
0;
#220
04
#230
14
#240
1m
b1111111111111111111111111111111111111111111111111111111111111001 #
b1111111111111111111111111111111111111111111111111111111111111001 `
b1111111111111111111111111111111111111111111111111111111111111001 j
b1111111111111111111111111111111111111111111111111111111111111001 s
b1111111111111111111111111111111111111111111111111111111111111001 i
b1000 g
b1000 -
b1000 c
b1000 f
04
05
1;
#250
bx ,
bx [
bx t
bx '
bx _
bx q
0m
b1111111111111111111111111111111111111111111111111111111111111101 i
b100 g
b100 -
b100 c
b100 f
b101 #
b101 `
b101 j
b101 s
b100 %
b100 A
b100 L
b100 b
b100 @
b100000 !
b100000 E
b100000 M
b100000 p
b111 .
b111 U
b111 Z
b11 0
b11 T
b11 X
b11 /
b11 S
b11 Y
b11 $
b11 >
b11 V
b100000 3
b100000 G
b100000 P
b11100 +
b11100 I
b11100 K
b1100011010001110000011 2
b1100011010001110000011 B
b1100011010001110000011 W
b1100011010001110000011 h
b100000 "
b100000 F
b100000 N
b100000 o
b111 1
b111 J
b111 O
b111 Q
b111 R
14
#260
04
1<
0;
#270
b1110 ,
b1110 [
b1110 t
b1110 '
b1110 _
b1110 q
b11111 !
b11111 E
b11111 M
b11111 p
b11 g
b11 -
b11 c
b11 f
b11 %
b11 A
b11 L
b11 b
b1100011010 ?
b11 @
b1111111111111111111111111111111111111111111111111111111111111101 i
b11 #
b11 `
b11 j
b11 s
b1100011010001110000011 (
b1100011010001110000011 =
b1100011010001110000011 C
b0 )
b0 ]
b0 ^
b0 a
b0 e
b0 *
b0 H
b0 \
b0 d
14
#280
04
#290
14
#300
04
#310
bx ,
bx [
bx t
bx '
bx _
bx q
b111 #
b111 `
b111 j
b111 s
b1111111111111111111111111111111111111111111111111111111111111001 i
b111 g
b111 -
b111 c
b111 f
b111 %
b111 A
b111 L
b111 b
b111 @
b100111 !
b100111 E
b100111 M
b100111 p
b11111 .
b11111 U
b11111 Z
b111 0
b111 T
b111 X
b1000 /
b1000 S
b1000 Y
b100011 $
b100011 >
b100011 V
b100100 3
b100100 G
b100100 P
b100000 +
b100000 I
b100000 K
b11111110100000111010111110100011 2
b11111110100000111010111110100011 B
b11111110100000111010111110100011 W
b11111110100000111010111110100011 h
b100100 "
b100100 F
b100100 N
b100100 o
b1000 1
b1000 J
b1000 O
b1000 Q
b1000 R
14
1;
#320
04
#330
b11111 !
b11111 E
b11111 M
b11111 p
b1111111111111111111111111111111111111111111111111111111111111111 g
b1111111111111111111111111111111111111111111111111111111111111111 -
b1111111111111111111111111111111111111111111111111111111111111111 c
b1111111111111111111111111111111111111111111111111111111111111111 f
b1111111111111111111111111111111111111111111111111111111111111111 %
b1111111111111111111111111111111111111111111111111111111111111111 A
b1111111111111111111111111111111111111111111111111111111111111111 L
b1111111111111111111111111111111111111111111111111111111111111111 b
1l
b11111110100000111010 ?
b111111111111 @
b1101 #
b1101 `
b1101 j
b1101 s
b1111 i
1k
b111110 )
b111110 ]
b111110 ^
b111110 a
b1110 e
b1110 *
b1110 H
b1110 \
b1110 d
b11111110100000111010111110100011 (
b11111110100000111010111110100011 =
b11111110100000111010111110100011 C
14
0;
#340
04
#350
b111110 ,
b111110 [
b111110 t
b111110 '
b111110 _
b111110 q
14
0<
1:
#360
04
#370
14
#380
04
#390
b1111111111111111111111111111111111111111111111111111111111101000 %
b1111111111111111111111111111111111111111111111111111111111101000 A
b1111111111111111111111111111111111111111111111111111111111101000 L
b1111111111111111111111111111111111111111111111111111111111101000 b
0m
b111111101000 @
b1100 !
b1100 E
b1100 M
b1100 p
b1001 .
b1001 U
b1001 Z
b1 0
b1 T
b1 X
b110011 $
b110011 >
b110011 V
b101000 3
b101000 G
b101000 P
b100100 +
b100100 I
b100100 K
b100000001000010010110011 2
b100000001000010010110011 B
b100000001000010010110011 W
b100000001000010010110011 h
b101000 "
b101000 F
b101000 N
b101000 o
b1001 1
b1001 J
b1001 O
b1001 Q
b1001 R
bx '
bx _
bx q
b1001100 #
b1001100 `
b1001100 j
b1001100 s
b1111111111111111111111111111111111111111111111111111111111010000 i
b111110 g
b111110 -
b111110 c
b111110 f
b1001100 ,
b1001100 [
b1001100 t
14
0:
b1 6
b1 r
15
1;
#400
04
#410
b101100 !
b101100 E
b101100 M
b101100 p
b1000 %
b1000 A
b1000 L
b1000 b
b111111 ,
b111111 [
b111111 t
b1000 @
b111111 #
b111111 `
b111111 j
b111111 s
b100000001000 ?
b1111111111111111111111111111111111111111111111111111111111000011 i
b1 e
b1 *
b1 H
b1 \
b1 d
b100000001000010010110011 (
b100000001000010010110011 =
b100000001000010010110011 C
14
0;
#420
04
1<
#430
14
#440
04
0<
#450
14
#460
04
1;
#470
1m
b1111111111111111111111111111111111111111111111111111111111000011 ,
b1111111111111111111111111111111111111111111111111111111111000011 [
b1111111111111111111111111111111111111111111111111111111111000011 t
b1111111111111111111111111111111111111111111111111111111111000011 #
b1111111111111111111111111111111111111111111111111111111111000011 `
b1111111111111111111111111111111111111111111111111111111111000011 j
b1111111111111111111111111111111111111111111111111111111111000011 s
b110000 !
b110000 E
b110000 M
b110000 p
b1010 .
b1010 U
b1010 Z
b1000 0
b1000 T
b1000 X
b1 /
b1 S
b1 Y
b101100 3
b101100 G
b101100 P
b101000 +
b101000 I
b101000 K
b1000000000101000000010100110011 2
b1000000000101000000010100110011 B
b1000000000101000000010100110011 W
b1000000000101000000010100110011 h
b101100 "
b101100 F
b101100 N
b101100 o
b1010 1
b1010 J
b1010 O
b1010 Q
b1010 R
14
#480
04
#490
b10000101001 !
b10000101001 E
b10000101001 M
b10000101001 p
b10000000001 %
b10000000001 A
b10000000001 L
b10000000001 b
0n
0m
b111101 ,
b111101 [
b111101 t
bx '
bx _
bx q
b10000000001 @
b111101 #
b111101 `
b111101 j
b111101 s
0l
b1000000000101000000 ?
b1 g
b1 -
b1 c
b1 f
b111101 i
0k
b1 )
b1 ]
b1 ^
b1 a
b111110 e
b111110 *
b111110 H
b111110 \
b111110 d
b1000000000101000000010100110011 (
b1000000000101000000010100110011 =
b1000000000101000000010100110011 C
14
0;
#500
04
1<
#510
b111111 ,
b111111 [
b111111 t
b111111 #
b111111 `
b111111 j
b111111 s
b10000101101 !
b10000101101 E
b10000101101 M
b10000101101 p
b1011 .
b1011 U
b1011 Z
b1 0
b1 T
b1 X
b11 /
b11 S
b11 Y
b10011 $
b10011 >
b10011 V
b110000 3
b110000 G
b110000 P
b101100 +
b101100 I
b101100 K
b1100001000010110010011 2
b1100001000010110010011 B
b1100001000010110010011 W
b1100001000010110010011 h
b110000 "
b110000 F
b110000 N
b110000 o
b1011 1
b1011 J
b1011 O
b1011 Q
b1011 R
14
1;
#520
04
#530
b101111 !
b101111 E
b101111 M
b101111 p
b11 %
b11 A
b11 L
b11 b
b11 @
b1100001000 ?
b0 )
b0 ]
b0 ^
b0 a
b1 e
b1 *
b1 H
b1 \
b1 d
b1100001000010110010011 (
b1100001000010110010011 =
b1100001000010110010011 C
b100 ,
b100 [
b100 t
b100 #
b100 `
b100 j
b100 s
1l
b1111111111111111111111111111111111111111111111111111111111111110 i
1k
b11 g
b11 -
b11 c
b11 f
14
05
0<
0;
#540
04
#550
14
#560
04
1<
#570
1m
b1111111111111111111111111111111111111111110011111000000000000001 ,
b1111111111111111111111111111111111111111110011111000000000000001 [
b1111111111111111111111111111111111111111110011111000000000000001 t
b1111111111111111111111111111111111111111110011111000000000000001 #
b1111111111111111111111111111111111111111110011111000000000000001 `
b1111111111111111111111111111111111111111110011111000000000000001 j
b1111111111111111111111111111111111111111110011111000000000000001 s
b1111111111111111111111111111111111111111110011111000000000000001 i
b1100001000000000000000 g
b1100001000000000000000 -
b1100001000000000000000 c
b1100001000000000000000 f
b1100001000000000000000 %
b1100001000000000000000 A
b1100001000000000000000 L
b1100001000000000000000 b
b1100001000000000110000 !
b1100001000000000110000 E
b1100001000000000110000 M
b1100001000000000110000 p
b1100 .
b1100 U
b1100 Z
b0 0
b0 T
b0 X
b0 /
b0 S
b0 Y
b10111 $
b10111 >
b10111 V
b110100 3
b110100 G
b110100 P
b110000 +
b110000 I
b110000 K
b1011000010111 2
b1011000010111 B
b1011000010111 W
b1011000010111 h
b110100 "
b110100 F
b110100 N
b110100 o
b1100 1
b1100 J
b1100 O
b1100 Q
b1100 R
14
1;
#580
b1100001000000000110000 ,
b1100001000000000110000 [
b1100001000000000110000 t
04
b11 6
b11 r
0<
0;
#590
b1000000110000 ,
b1000000110000 [
b1000000110000 t
b1111111111111111111111111111111111111111111111111111000000000001 #
b1111111111111111111111111111111111111111111111111111000000000001 `
b1111111111111111111111111111111111111111111111111111000000000001 j
b1111111111111111111111111111111111111111111111111111000000000001 s
b1000000110000 !
b1000000110000 E
b1000000110000 M
b1000000110000 p
b1111111111111111111111111111111111111111111111111111000000000001 i
b1000000000000 g
b1000000000000 -
b1000000000000 c
b1000000000000 f
b1000000000000 %
b1000000000000 A
b1000000000000 L
b1000000000000 b
b0 @
b1 ?
b1011000010111 (
b1011000010111 =
b1011000010111 C
b1 )
b1 ]
b1 ^
b1 a
14
#600
04
#610
14
1<
#620
04
1;
#630
1&
1m
bx '
bx _
bx q
b1111111111111111111111111111111111111111111111111111000000000001 #
b1111111111111111111111111111111111111111111111111111000000000001 `
b1111111111111111111111111111111111111111111111111111000000000001 j
b1111111111111111111111111111111111111111111111111111000000000001 s
1l
b1111111111111111111111111111111111111111111111111111000000000001 i
1k
b1000000110100 ,
b1000000110100 [
b1000000110100 t
b1000000000000 g
b1000000000000 -
b1000000000000 c
b1000000000000 f
b1000000000000 %
b1000000000000 A
b1000000000000 L
b1000000000000 b
b100000000000 ?
b1000000110100 !
b1000000110100 E
b1000000110100 M
b1000000110100 p
b1101 .
b1101 U
b1101 Z
b1000 /
b1000 S
b1000 Y
b1101111 $
b1101111 >
b1101111 V
b1000000110100 3
b1000000110100 G
b1000000110100 P
b110100 +
b110100 I
b110100 K
b100000000000011011101111 2
b100000000000011011101111 B
b100000000000011011101111 W
b100000000000011011101111 h
b111000 "
b111000 F
b111000 N
b111000 o
b1101 1
b1101 J
b1101 O
b1101 Q
b1101 R
14
#640
b111000 ,
b111000 [
b111000 t
04
b10 6
b10 r
0<
0;
#650
b1111111111111111111111111111111111111111111111111111111111111001 #
b1111111111111111111111111111111111111111111111111111111111111001 `
b1111111111111111111111111111111111111111111111111111111111111001 j
b1111111111111111111111111111111111111111111111111111111111111001 s
b111100 3
b111100 G
b111100 P
b111100 !
b111100 E
b111100 M
b111100 p
b1111111111111111111111111111111111111111111111111111111111111001 i
b1000 g
b1000 -
b1000 c
b1000 f
b1000 %
b1000 A
b1000 L
b1000 b
b1000 @
b100 ?
b111110 )
b111110 ]
b111110 ^
b111110 a
b100000000000011011101111 (
b100000000000011011101111 =
b100000000000011011101111 C
14
#660
04
#670
14
1<
#680
04
1;
#690
b100000000000 ?
b1000000 ,
b1000000 [
b1000000 t
b1000100 3
b1000100 G
b1000100 P
b1000100 !
b1000100 E
b1000100 M
b1000100 p
b1110 .
b1110 U
b1110 Z
b111 0
b111 T
b111 X
b11 /
b11 S
b11 Y
b1100111 $
b1100111 >
b1100111 V
b111100 +
b111100 I
b111100 K
b1100111000011101100111 2
b1100111000011101100111 B
b1100111000011101100111 W
b1100111000011101100111 h
b1000000 "
b1000000 F
b1000000 N
b1000000 o
b1111 1
b1111 J
b1111 O
b1111 Q
b1111 R
14
#700
b1001 3
b1001 G
b1001 P
b1001 !
b1001 E
b1001 M
b1001 p
b1 +
b1 I
b1 K
04
17
0<
0;
#710
b11 g
b11 -
b11 c
b11 f
b11 %
b11 A
b11 L
b11 b
0m
b11 @
b1011 #
b1011 `
b1011 j
b1011 s
b1100111000 ?
0l
b10001 3
b10001 G
b10001 P
b10001 !
b10001 E
b10001 M
b10001 p
b1011 i
0k
b1110 +
b1110 I
b1110 K
b1100111000011101100111 (
b1100111000011101100111 =
b1100111000011101100111 C
b0 )
b0 ]
b0 ^
b0 a
b1110 e
b1110 *
b1110 H
b1110 \
b1110 d
14
#720
04
1<
